{
    "port": 3000,
    "secret": "RilTokANTIHYPE",
    "jwtSecret": "jwtSecretLOOOLantiHYPE",
    "database": {
        "login": "truenasker",
        "password": "",
        "name": "nask",
        "port": 5432,
        "address": "192.168.1.3",
        "force": true,
        "fixtures": false
    },
    "crypto": {
        "hash": {
            "length": 128
        }
    }
}
